#    #    Name      MW[kg/kmol]     d[nm]       m[mug]          V[cm3]          C         H         O         H/C       O/C       O/H       
1    1    BIN1B     250.30          0.76117     4.15633e-016    2.30907e-022    20        10        0         0.5000    0.0000    0.0000    
2    2    BIN1A     256.35          0.76725     4.25676e-016    2.36487e-022    20        16        0         0.8000    0.0000    0.0000    

